{
    "swagger": "2.0",
    "info": {
        "description": "This is a server notification.",
        "title": "Swagger Notification API",
        "termsOfService": "http://swagger.io/terms/",
        "contact": {
            "name": "Notification API Support (Specify support contacts: mail/url)"
        },
        "license": {
            "name": "Apache 2.0",
            "url": "http://www.apache.org/licenses/LICENSE-2.0.html"
        },
        "version": "1.0"
    },
    "basePath": "/",
    "paths": {
        "/api/v1/example/{id}": {
            "get": {
                "produces": [
                    "application/json"
                ],
                "summary": "Retrieves example based on given ID",
                "parameters": [
                    {
                        "type": "integer",
                        "description": "Example ID",
                        "name": "id",
                        "in": "path",
                        "required": true
                    }
                ],
                "responses": {
                    "200": {
                        "description": "OK",
                        "schema": {
                            "$ref": "#/definitions/api.Example"
                        }
                    }
                }
            }
        }
    },
    "definitions": {
        "api.Example": {
            "type": "object",
            "properties": {
                "address": {
                    "type": "string"
                },
                "email": {
                    "type": "string"
                },
                "first_name": {
                    "type": "string"
                },
                "last_name": {
                    "type": "string"
                }
            }
        }
    }
}